{rozhovor s lebkou:}

block _ (1)
title
  justtalk
D: "Hey!"
  juststay
Leb: "???"
D: "!!!"
Leb: "!!"
D: "!,!,?!"
Leb: "..."
D: "!!!"
Leb: ",;."
D: "?, !"
Leb: "!"
D: "-"
Leb: "---"
D: "?"
Leb: "."
D: "?!"
Leb: "-,-"
D: "..."
D: "?!?"
D: "!"
  justtalk
D: "Es hat keine Worte mehr."
  juststay
gplend
